<?xml version="1.0" ?>
<!DOCTYPE svg PUBLIC '-//W3C//DTD SVG 1.1//EN' 'http://www.w3.org/Graphics/SVG/1.1/DTD/svg11.dtd'>
<svg enable-background="new 0 0 48 48" height="48px" id="Layer_1" version="1.1" viewBox="0 0 48 48" width="48px" xml:space="preserve" xmlns="http://www.w3.org/2000/svg" xmlns:xlink="http://www.w3.org/1999/xlink">
  <g>
    <g>
      <g>
        <g><path d="M24.04,0c-13.255,0-24,10.745-24,24s10.745,24,24,24s24-10.745,24-24S37.295,0,24.04,0z M24.069,44.008   C13,44.008,4.028,35.035,4.028,23.967S13,3.926,24.069,3.926c11.068,0,20.041,8.973,20.041,20.041S35.138,44.008,24.069,44.008z" fill="#231F20"/></g>
      </g>
    </g><path clip-rule="evenodd" d="M17.145732444839453,12.219039355914523 C18.53880028291223,11.955891495864323 19.8077962132859,13.52669955519908 20.502598896400908,14.610453241984779 C21.17893506302116,15.663044682185582 22.011082462565874,16.897992972772055 21.675222693817595,18.26797766522639 C21.48824921430824,19.0366464143204 20.793446531193233,19.45560550729506 20.26830496837375,19.909189318697383 C19.750088349239807,20.357002343695097 18.9606447690892,20.767882335703305 18.76905466045616,21.45576007513278 C18.456278037326314,22.57183016578429 19.140693304913025,23.743299805920056 19.56426902701137,24.410402714292935 C20.52683619930027,25.917732123176982 21.690226738469576,27.276175242822102 23.175627159016113,28.489194545071058 C23.89466714503048,29.07781475834124 24.893013193027947,29.863795866649085 25.89366755558727,29.66181834248774 C27.38830123438118,29.35942913488619 27.78302302445648,27.516239957253866 29.410384790556407,27.27040445641749 C30.959263861553644,27.03611052839034 32.00723867263076,28.159105562727383 32.88208989156959,28.911616109888485 C33.7246247066426,29.639889354150228 35.084221983568646,30.57244843713515 34.99188940109489,31.82009245781176 C34.93764400889156,32.53682412926429 34.362873682992436,32.98117468241923 33.86427773763416,33.413983662764956 C33.35760269130943,33.85602590135806 32.91325213815449,34.35231353215448 32.412347878234364,34.6789400426554 C31.19932857598541,35.470691937367846 29.711619840877034,35.858488783757615 28.003467065112567,35.80539754883521 C26.328784850494834,35.75346047119372 24.99457903374908,35.18446093169921 23.78386804606197,34.53928701166385 C21.416691462891084,33.27663894633525 19.545802510516623,31.500390890996385 17.783404342548824,29.521011154215266 C16.049860106604076,27.575101978580886 14.449043957965355,25.2714040458607 13.56380532349823,22.724178926865985 C12.459276805655936,19.54332146064513 13.043280389802437,16.27590219835513 14.831070017950513,14.23766044024699 C15.133459225552063,13.891413255970413 15.611280339853746,13.530162027041843 16.048705949323157,13.158523382584981 C16.484977401511646,12.785730580847197 16.53287492866991,12.33445508400672 17.145732444839453,12.219039355914523 z" fill="#231F20" fill-rule="evenodd"/></g>
</svg>
